<?xml version="1.0" encoding="iso-8859-1"?>
<!-- Generator: Adobe Illustrator 19.0.0, SVG Export Plug-In . SVG Version: 6.00 Build 0)  -->
<svg version="1.1" id="Capa_1" xmlns="http://www.w3.org/2000/svg" xmlns:xlink="http://www.w3.org/1999/xlink" x="0px" y="0px"
	 viewBox="0 0 512 512" style="enable-background:new 0 0 512 512;" xml:space="preserve">
<linearGradient id="SVGID_1_" gradientUnits="userSpaceOnUse" x1="256" y1="514" x2="256" y2="2" gradientTransform="matrix(1 0 0 -1 0 514)">
	<stop  offset="0" style="stop-color:#2AF598"/>
	<stop  offset="1" style="stop-color:#009EFD"/>
</linearGradient>
<path style="fill:url(#SVGID_1_);" d="M236,512v-40h40v40H236z M198,512v-40h-40v40H198z M276,276v-40h-40v40H276z M276,433v-40h-40
	v40H276z M276,354v-40h-40v40H276z M236,0v40h40V0H236z M236,79v40h40V79H236z M236,158v40h40v-40H236z M512,276v-40h-40v40H512z
	 M512,433v-40h-40v40H512z M472,512c22.091,0,40-17.909,40-40l0,0h-40V512L472,512z M512,354v-40h-40v40H512z M472,79v40h40V79H472z
	 M472,158v40h40v-40H472z M120,512v-40H80v40H120z M198,40V0h-40v40H198z M120,40V0H80v40H120z M198,276v-40h-40v40H198z M120,276
	v-40H80v40H120z M354,512v-40h-40v40H354z M432,512v-40h-40v40H432z M354,40V0h-40v40H354z M432,40V0h-40v40H432z M512,40L512,40
	c0-22.091-17.909-40-40-40l0,0v40H512z M40,0C17.909,0,0,17.909,0,40v432l0,0c0,22.091,17.909,40,40,40V0z M354,276v-40h-40v40H354z
	 M432,276v-40h-40v40H432z"/>
<g>
</g>
<g>
</g>
<g>
</g>
<g>
</g>
<g>
</g>
<g>
</g>
<g>
</g>
<g>
</g>
<g>
</g>
<g>
</g>
<g>
</g>
<g>
</g>
<g>
</g>
<g>
</g>
<g>
</g>
</svg>
