<?xml version="1.0" encoding="iso-8859-1"?>
<!-- Generator: Adobe Illustrator 19.0.0, SVG Export Plug-In . SVG Version: 6.00 Build 0)  -->
<svg version="1.1" id="Capa_1" xmlns="http://www.w3.org/2000/svg" xmlns:xlink="http://www.w3.org/1999/xlink" x="0px" y="0px"
	 viewBox="0 0 512.001 512.001" style="enable-background:new 0 0 512.001 512.001;" xml:space="preserve">
<linearGradient id="SVGID_1_" gradientUnits="userSpaceOnUse" x1="256.0005" y1="514" x2="256.0005" y2="1.999" gradientTransform="matrix(1 0 0 -1 0 514)">
	<stop  offset="0" style="stop-color:#2AF598"/>
	<stop  offset="1" style="stop-color:#009EFD"/>
</linearGradient>
<path style="fill:url(#SVGID_1_);" d="M321.858,388.858l28.284,28.285L256,511.285l-94.142-94.144l28.284-28.283L256,454.717
	L321.858,388.858z M512,60v196v78v118c0,33.084-26.916,60-60,60h-96v-40h96c11.028,0,20-8.972,20-20v-98H356V237h-40v117H196V236
	h120v-78H196v78h-40v-77.999H40v78h116v118H40v98c0,11.028,8.972,20,20,20h96v40H60c-33.084,0-60-26.916-60-60V334v-78V60
	C0,26.916,26.916,0,60,0h392C485.085,0,512,26.916,512,60z M452,40h-96v78.001h116V60C472,48.972,463.029,40,452,40z M156,118.001
	V40H60c-11.028,0-20,8.972-20,20v58.001H156z M316,118.001V40H196v78.001H316z M472,236v-78H356v78H472z"/>
<g>
</g>
<g>
</g>
<g>
</g>
<g>
</g>
<g>
</g>
<g>
</g>
<g>
</g>
<g>
</g>
<g>
</g>
<g>
</g>
<g>
</g>
<g>
</g>
<g>
</g>
<g>
</g>
<g>
</g>
</svg>
