<?xml version="1.0" encoding="iso-8859-1"?>
<!-- Generator: Adobe Illustrator 19.0.0, SVG Export Plug-In . SVG Version: 6.00 Build 0)  -->
<svg version="1.1" id="Capa_1" xmlns="http://www.w3.org/2000/svg" xmlns:xlink="http://www.w3.org/1999/xlink" x="0px" y="0px"
	 viewBox="0 0 512 512" style="enable-background:new 0 0 512 512;" xml:space="preserve">
<linearGradient id="SVGID_1_" gradientUnits="userSpaceOnUse" x1="256" y1="514" x2="256" y2="2" gradientTransform="matrix(1 0 0 -1 0 514)">
	<stop  offset="0" style="stop-color:#2AF598"/>
	<stop  offset="1" style="stop-color:#009EFD"/>
</linearGradient>
<path style="fill:url(#SVGID_1_);" d="M512,276h-40v-40h40V276z M512,314h-40v40h40V314z M276,236h-40v40h40V236z M433,236h-40v40
	h40V236z M354,236h-40v40h40V236z M0,276h40v-40H0V276z M79,276h40v-40H79V276z M158,276h40v-40h-40V276z M276,0h-40v40h40V0z
	 M433,0h-40v40h40V0z M512,40c0-22.091-17.909-40-40-40l0,0v40H512L512,40z M354,0h-40v40h40V0z M79,40h40V0H79V40z M158,40h40V0
	h-40V40z M512,392h-40v40h40V392z M40,314H0v40h40V314z M40,392H0v40h40V392z M276,314h-40v40h40V314z M276,392h-40v40h40V392z
	 M512,158h-40v40h40V158z M512,80h-40v40h40V80z M40,158H0v40h40V158z M40,80H0v40h40V80z M40,0L40,0C17.909,0,0,17.909,0,40l0,0h40
	V0z M276,472h-40v40h40V472z M433,472h-40v40h40V472z M472,472v40l0,0c22.091,0,40-17.909,40-40H472z M354,472h-40v40h40V472z
	 M79,512h40v-40H79V512z M158,512h40v-40h-40V512z M40,472H0l0,0c0,22.091,17.909,40,40,40l0,0V472z M276,158h-40v40h40V158z
	 M276,80h-40v40h40V80z"/>
<g>
</g>
<g>
</g>
<g>
</g>
<g>
</g>
<g>
</g>
<g>
</g>
<g>
</g>
<g>
</g>
<g>
</g>
<g>
</g>
<g>
</g>
<g>
</g>
<g>
</g>
<g>
</g>
<g>
</g>
</svg>
