<?xml version="1.0" encoding="iso-8859-1"?>
<!-- Generator: Adobe Illustrator 19.0.0, SVG Export Plug-In . SVG Version: 6.00 Build 0)  -->
<svg version="1.1" id="Capa_1" xmlns="http://www.w3.org/2000/svg" xmlns:xlink="http://www.w3.org/1999/xlink" x="0px" y="0px"
	 viewBox="0 0 512 512" style="enable-background:new 0 0 512 512;" xml:space="preserve">
<linearGradient id="SVGID_1_" gradientUnits="userSpaceOnUse" x1="256" y1="514" x2="256" y2="2" gradientTransform="matrix(1 0 0 -1 0 514)">
	<stop  offset="0" style="stop-color:#2AF598"/>
	<stop  offset="1" style="stop-color:#009EFD"/>
</linearGradient>
<path style="fill:url(#SVGID_1_);" d="M388.858,321.857L454.716,256l-65.858-65.857l28.284-28.285L511.285,256l-94.142,94.143
	L388.858,321.857z M512,156h-40V60c0-11.028-8.972-20-20-20H346v78H176V40H60c-11.028,0-20,8.972-20,20v58h137v40h169v78H176v-78H40
	v78h137v40h169v78H176v-78H40v78h137v40h169v78h106c11.028,0,20-8.972,20-20v-96h40v96c0,33.084-26.916,60-60,60H326.003
	c-0.001,0-0.002,0-0.003,0h-70H60c-33.084,0-60-26.916-60-60V60C0,26.916,26.916,0,60,0h135.997C195.999,0,196,0,196,0h60h196
	c33.084,0,60,26.916,60,60V156z M40,394.001v58c0,11.028,8.972,20,20,20h116v-78H40z"/>
<g>
</g>
<g>
</g>
<g>
</g>
<g>
</g>
<g>
</g>
<g>
</g>
<g>
</g>
<g>
</g>
<g>
</g>
<g>
</g>
<g>
</g>
<g>
</g>
<g>
</g>
<g>
</g>
<g>
</g>
</svg>
